EESchema Schematic File Version 4
EELAYER 30 0
EELAYER END
$Descr A4 11693 8268
encoding utf-8
Sheet 1 1
Title "Solar Charger"
Date "2022-01-08"
Rev "v0.2"
Comp "CDP"
Comment1 "Dhruva Gole"
Comment2 ""
Comment3 ""
Comment4 ""
$EndDescr
$Comp
L Regulator_Switching:MT3608 U3
U 1 1 61DCA12A
P 1850 6850
F 0 "U3" H 1850 7217 50  0000 C CNN
F 1 "MT3608" H 1850 7126 50  0000 C CNN
F 2 "Package_TO_SOT_SMD:SOT-23-6" H 1900 6600 50  0001 L CIN
F 3 "https://www.olimex.com/Products/Breadboarding/BB-PWR-3608/resources/MT3608.pdf" H 1600 7300 50  0001 C CNN
	1    1850 6850
	1    0    0    -1  
$EndComp
Text GLabel 6400 6450 2    50   Input ~ 0
BAT+
Text GLabel 9800 1250 1    50   Input ~ 0
BAT-
$Comp
L heltec_wifi_lora_v1:Heltec_Wifi_LoRa_V2 U1
U 1 1 61DCBD72
P 3650 1600
F 0 "U1" H 3625 -139 50  0000 C CNN
F 1 "Heltec_Wifi_LoRa_V2" H 3625 -230 50  0000 C CNN
F 2 "custom_heltec_lora32:Heltec_WiFi_LoRa_V2" H 3650 1600 50  0001 C CNN
F 3 "" H 3650 1600 50  0001 C CNN
	1    3650 1600
	1    0    0    -1  
$EndComp
Text GLabel 750  6750 0    50   Input ~ 0
BAT+
$Comp
L Connector:Jack-DC J2
U 1 1 61DD50D7
P 7300 1400
F 0 "J2" H 7357 1725 50  0000 C CNN
F 1 "Jack-DC" H 7357 1634 50  0000 C CNN
F 2 "DC-Jack:DC_BarrelJack_Horizontal" H 7350 1360 50  0001 C CNN
F 3 "~" H 7350 1360 50  0001 C CNN
	1    7300 1400
	1    0    0    -1  
$EndComp
Text Notes 2900 650  0    79   ~ 16
Heltec LoRa32 Board
Text Notes 8000 700  0    79   ~ 16
Connectors
$Comp
L Connector:Conn_01x18_Male J1
U 1 1 61DDC381
P 10500 1600
F 0 "J1" H 10608 2581 50  0000 C CNN
F 1 "Conn_01x18_Male" H 10608 2490 50  0000 C CNN
F 2 "Connector_PinHeader_2.54mm:PinHeader_1x18_P2.54mm_Vertical" H 10500 1600 50  0001 C CNN
F 3 "~" H 10500 1600 50  0001 C CNN
	1    10500 1600
	-1   0    0    1   
$EndComp
$Comp
L Connector:Conn_01x18_Male J3
U 1 1 61DE03BA
P 10750 1500
F 0 "J3" H 10858 2481 50  0000 C CNN
F 1 "Conn_01x18_Male" H 10858 2390 50  0000 C CNN
F 2 "Connector_PinHeader_2.54mm:PinHeader_1x18_P2.54mm_Vertical" H 10750 1500 50  0001 C CNN
F 3 "~" H 10750 1500 50  0001 C CNN
	1    10750 1500
	1    0    0    -1  
$EndComp
$Comp
L Connector:Screw_Terminal_01x02 J4
U 1 1 61DE3F2A
P 8000 1750
F 0 "J4" H 8080 1742 50  0000 L CNN
F 1 "Screw_Terminal_01x02" H 8080 1651 50  0000 L CNN
F 2 "screw_conn:Screw_Conn_PhoenixContact_MCV_1,5_2-G-5.08_1x02_P5.08mm_Vertical" H 8000 1750 50  0001 C CNN
F 3 "~" H 8000 1750 50  0001 C CNN
	1    8000 1750
	1    0    0    -1  
$EndComp
Text GLabel 7800 1300 2    50   Input ~ 0
+Vpanel
Text GLabel 7800 1500 2    50   Input ~ 0
-Vpanel
Wire Wire Line
	7800 1300 7700 1300
Wire Wire Line
	7800 1750 7800 1650
Wire Wire Line
	7800 1650 8200 1650
Wire Wire Line
	8200 1650 8200 1200
Wire Wire Line
	8200 1200 7700 1200
Wire Wire Line
	7700 1200 7700 1300
Connection ~ 7700 1300
Wire Wire Line
	7700 1300 7600 1300
Wire Wire Line
	7800 1500 7700 1500
Wire Wire Line
	7800 1850 7700 1850
Wire Wire Line
	7700 1850 7700 1500
Connection ~ 7700 1500
Wire Wire Line
	7700 1500 7600 1500
$Comp
L Connector:USB_A J5
U 1 1 61E077DE
P 8950 1150
F 0 "J5" H 9007 1617 50  0000 C CNN
F 1 "USB_A" H 9007 1526 50  0000 C CNN
F 2 "USB-A:USB_A_Molex_67643_Horizontal" H 9100 1100 50  0001 C CNN
F 3 " ~" H 9100 1100 50  0001 C CNN
	1    8950 1150
	1    0    0    -1  
$EndComp
Text Notes 3650 4300 0    79   ~ 16
Power Section
Text GLabel 1200 5000 0    50   Input ~ 0
+Vpanel
$Comp
L Regulator_Switching:LM2596S-5 U2
U 1 1 61DF7E36
P 1800 5100
F 0 "U2" H 1800 5250 50  0000 C CNN
F 1 "LM2596S-5" H 1900 5350 50  0000 C CNN
F 2 "Package_TO_SOT_SMD:TO-263-5_TabPin3" H 1850 4850 50  0001 L CIN
F 3 "http://www.ti.com/lit/ds/symlink/lm2596.pdf" H 1800 5100 50  0001 C CNN
	1    1800 5100
	1    0    0    -1  
$EndComp
$Comp
L power:GND #PWR0101
U 1 1 61E060C8
P 7550 1850
F 0 "#PWR0101" H 7550 1600 50  0001 C CNN
F 1 "GND" V 7555 1722 50  0000 R CNN
F 2 "" H 7550 1850 50  0001 C CNN
F 3 "" H 7550 1850 50  0001 C CNN
	1    7550 1850
	0    1    1    0   
$EndComp
$Comp
L power:GND #PWR0102
U 1 1 61E06E1C
P 1800 5650
F 0 "#PWR0102" H 1800 5400 50  0001 C CNN
F 1 "GND" H 1805 5477 50  0000 C CNN
F 2 "" H 1800 5650 50  0001 C CNN
F 3 "" H 1800 5650 50  0001 C CNN
	1    1800 5650
	1    0    0    -1  
$EndComp
Wire Wire Line
	7550 1850 7700 1850
Connection ~ 7700 1850
$Comp
L power:GND #PWR0103
U 1 1 61E07CB5
P 9000 1600
F 0 "#PWR0103" H 9000 1350 50  0001 C CNN
F 1 "GND" V 9005 1472 50  0000 R CNN
F 2 "" H 9000 1600 50  0001 C CNN
F 3 "" H 9000 1600 50  0001 C CNN
	1    9000 1600
	0    -1   -1   0   
$EndComp
Wire Wire Line
	8950 1550 8950 1600
Wire Wire Line
	8950 1600 9000 1600
Wire Wire Line
	1200 5000 1250 5000
Wire Wire Line
	1800 5400 1800 5600
Wire Wire Line
	1300 5200 1050 5200
Wire Wire Line
	1050 5200 1050 5600
Wire Wire Line
	1050 5600 1800 5600
Connection ~ 1800 5600
Wire Wire Line
	1800 5600 1800 5650
$Comp
L Diode:1N5820 D1
U 1 1 61E0D90E
P 2450 5400
F 0 "D1" V 2404 5480 50  0000 L CNN
F 1 "1N5820" V 2495 5480 50  0000 L CNN
F 2 "Diode_THT:D_DO-201AD_P15.24mm_Horizontal" H 2450 5225 50  0001 C CNN
F 3 "http://www.vishay.com/docs/88526/1n5820.pdf" H 2450 5400 50  0001 C CNN
	1    2450 5400
	0    1    1    0   
$EndComp
Wire Wire Line
	2300 5200 2450 5200
Wire Wire Line
	2450 5200 2450 5250
Wire Wire Line
	2450 5550 2450 5600
Wire Wire Line
	2450 5600 1800 5600
$Comp
L Device:L L1
U 1 1 61E0FC7A
P 2750 5200
F 0 "L1" V 2940 5200 50  0000 C CNN
F 1 "33uH" V 2849 5200 50  0000 C CNN
F 2 "" H 2750 5200 50  0001 C CNN
F 3 "~" H 2750 5200 50  0001 C CNN
	1    2750 5200
	0    -1   -1   0   
$EndComp
$Comp
L Device:C C1
U 1 1 61E130B2
P 3100 5400
F 0 "C1" H 3215 5446 50  0000 L CNN
F 1 "220uF" H 3215 5355 50  0000 L CNN
F 2 "" H 3138 5250 50  0001 C CNN
F 3 "~" H 3100 5400 50  0001 C CNN
	1    3100 5400
	1    0    0    -1  
$EndComp
Wire Wire Line
	2600 5200 2450 5200
Connection ~ 2450 5200
Wire Wire Line
	2900 5200 3100 5200
Wire Wire Line
	3100 5200 3100 5250
Wire Wire Line
	3100 5550 3100 5600
Wire Wire Line
	3100 5600 2450 5600
Connection ~ 2450 5600
Wire Wire Line
	2300 5000 3100 5000
Wire Wire Line
	3100 5000 3100 5200
Connection ~ 3100 5200
Wire Wire Line
	3100 5200 3550 5200
$Comp
L power:+5V #PWR0104
U 1 1 61E1FD95
P 3550 5200
F 0 "#PWR0104" H 3550 5050 50  0001 C CNN
F 1 "+5V" H 3565 5373 50  0000 C CNN
F 2 "" H 3550 5200 50  0001 C CNN
F 3 "" H 3550 5200 50  0001 C CNN
	1    3550 5200
	1    0    0    -1  
$EndComp
$Comp
L power:+5V #PWR0105
U 1 1 61E207A9
P 9350 850
F 0 "#PWR0105" H 9350 700 50  0001 C CNN
F 1 "+5V" H 9365 1023 50  0000 C CNN
F 2 "" H 9350 850 50  0001 C CNN
F 3 "" H 9350 850 50  0001 C CNN
	1    9350 850 
	1    0    0    -1  
$EndComp
Wire Wire Line
	9350 850  9350 950 
Wire Wire Line
	9350 950  9250 950 
$Comp
L Device:C C2
U 1 1 61E574FB
P 1250 4750
F 0 "C2" H 1365 4796 50  0000 L CNN
F 1 "680uF" H 1365 4705 50  0000 L CNN
F 2 "" H 1288 4600 50  0001 C CNN
F 3 "~" H 1250 4750 50  0001 C CNN
	1    1250 4750
	1    0    0    -1  
$EndComp
$Comp
L power:GND #PWR0106
U 1 1 61E5793C
P 950 4600
F 0 "#PWR0106" H 950 4350 50  0001 C CNN
F 1 "GND" H 955 4427 50  0000 C CNN
F 2 "" H 950 4600 50  0001 C CNN
F 3 "" H 950 4600 50  0001 C CNN
	1    950  4600
	1    0    0    -1  
$EndComp
Wire Wire Line
	950  4600 1250 4600
Wire Wire Line
	1250 4900 1250 5000
Connection ~ 1250 5000
Wire Wire Line
	1250 5000 1300 5000
Wire Wire Line
	6200 6450 6400 6450
$Comp
L power:+5V #PWR0107
U 1 1 61E64590
P 4650 6100
F 0 "#PWR0107" H 4650 5950 50  0001 C CNN
F 1 "+5V" H 4665 6273 50  0000 C CNN
F 2 "" H 4650 6100 50  0001 C CNN
F 3 "" H 4650 6100 50  0001 C CNN
	1    4650 6100
	1    0    0    -1  
$EndComp
Wire Wire Line
	4650 6100 4650 6250
Wire Wire Line
	4650 6250 4800 6250
$Comp
L BQ24092DGQR:BQ24092DGQR U4
U 1 1 61E69327
P 5500 6650
F 0 "U4" H 5500 7320 50  0000 C CNN
F 1 "BQ24092DGQR" H 5500 7229 50  0000 C CNN
F 2 "charger-IC-BQ24092DGQR:IC_XTR111AIDGQR" H 5500 6650 50  0001 L BNN
F 3 "" H 5500 6650 50  0001 L BNN
	1    5500 6650
	1    0    0    -1  
$EndComp
$Comp
L Device:C C3
U 1 1 61E75A74
P 4050 6450
F 0 "C3" H 4165 6496 50  0000 L CNN
F 1 "10u" H 3900 6550 50  0000 L CNN
F 2 "" H 4088 6300 50  0001 C CNN
F 3 "~" H 4050 6450 50  0001 C CNN
	1    4050 6450
	1    0    0    -1  
$EndComp
Connection ~ 4650 6250
$Comp
L power:GND #PWR0108
U 1 1 61E7A047
P 5500 7550
F 0 "#PWR0108" H 5500 7300 50  0001 C CNN
F 1 "GND" H 5505 7377 50  0000 C CNN
F 2 "" H 5500 7550 50  0001 C CNN
F 3 "" H 5500 7550 50  0001 C CNN
	1    5500 7550
	1    0    0    -1  
$EndComp
Wire Wire Line
	6250 7050 6200 7050
Wire Wire Line
	6250 7050 6250 7550
Wire Wire Line
	6250 7550 5500 7550
Wire Wire Line
	4050 6600 4050 6700
$Comp
L Device:R_US R1
U 1 1 61E7D02E
P 4350 6750
F 0 "R1" H 4200 6750 50  0000 L CNN
F 1 "536R" H 4100 6650 50  0000 L CNN
F 2 "" V 4390 6740 50  0001 C CNN
F 3 "~" H 4350 6750 50  0001 C CNN
	1    4350 6750
	1    0    0    -1  
$EndComp
$Comp
L Connector:Conn_01x02_Male J6
U 1 1 61E8DDE7
P 9700 1800
F 0 "J6" H 9808 1981 50  0000 C CNN
F 1 "Conn_01x02_Male" H 9808 1890 50  0000 C CNN
F 2 "Connector_JST:JST_EH_S2B-EH_1x02_P2.50mm_Horizontal" H 9700 1800 50  0001 C CNN
F 3 "~" H 9700 1800 50  0001 C CNN
	1    9700 1800
	0    -1   -1   0   
$EndComp
$Comp
L Device:R_US R2
U 1 1 61E97CEA
P 4500 7000
F 0 "R2" H 4350 6950 50  0000 L CNN
F 1 "1K" H 4350 6850 50  0000 L CNN
F 2 "" V 4540 6990 50  0001 C CNN
F 3 "~" H 4500 7000 50  0001 C CNN
	1    4500 7000
	1    0    0    -1  
$EndComp
Wire Wire Line
	4050 6250 4050 6300
Wire Wire Line
	4050 6250 4650 6250
Wire Wire Line
	4050 7550 4350 7550
Connection ~ 5500 7550
Wire Wire Line
	4800 6450 4250 6450
Wire Wire Line
	4250 6450 4250 6700
Wire Wire Line
	4250 6700 4050 6700
Connection ~ 4050 6700
Wire Wire Line
	4050 6700 4050 7550
Wire Wire Line
	4800 6350 4350 6350
Wire Wire Line
	4350 6900 4350 7550
Connection ~ 4350 7550
Wire Wire Line
	4350 7550 4500 7550
Wire Wire Line
	4350 6350 4350 6600
Wire Wire Line
	4800 6550 4500 6550
Wire Wire Line
	4500 6550 4500 6850
Wire Wire Line
	4500 7150 4500 7550
Connection ~ 4500 7550
Wire Wire Line
	4500 7550 4650 7550
$Comp
L Device:R_US R3
U 1 1 61EAE14D
P 4650 6800
F 0 "R3" H 4650 6700 50  0000 L CNN
F 1 "10K" H 4650 6600 50  0000 L CNN
F 2 "" V 4690 6790 50  0001 C CNN
F 3 "~" H 4650 6800 50  0001 C CNN
	1    4650 6800
	1    0    0    -1  
$EndComp
Wire Wire Line
	4800 6850 4800 7550
Connection ~ 4800 7550
Wire Wire Line
	4800 7550 5500 7550
Wire Wire Line
	4650 6950 4650 7550
Connection ~ 4650 7550
Wire Wire Line
	4650 7550 4800 7550
Wire Wire Line
	4650 6650 4800 6650
$Comp
L Device:LED D?
U 1 1 61E13342
P 6300 5750
F 0 "D?" V 6339 5632 50  0000 R CNN
F 1 "LED" V 6248 5632 50  0000 R CNN
F 2 "" H 6300 5750 50  0001 C CNN
F 3 "~" H 6300 5750 50  0001 C CNN
	1    6300 5750
	0    -1   -1   0   
$EndComp
$Comp
L Device:LED D?
U 1 1 61E14902
P 6600 5750
F 0 "D?" V 6639 5632 50  0000 R CNN
F 1 "LED" V 6548 5632 50  0000 R CNN
F 2 "" H 6600 5750 50  0001 C CNN
F 3 "~" H 6600 5750 50  0001 C CNN
	1    6600 5750
	0    -1   -1   0   
$EndComp
Text GLabel 5600 5400 0    50   Input ~ 0
BAT+
Wire Wire Line
	5600 5400 5800 5400
Wire Wire Line
	6450 5400 6600 5400
Wire Wire Line
	6600 5400 6600 5600
Wire Wire Line
	6600 5900 6600 6350
Wire Wire Line
	6600 6350 6200 6350
Wire Wire Line
	6300 5900 6300 6250
Wire Wire Line
	6300 6250 6200 6250
Wire Wire Line
	6300 5600 6100 5600
Wire Wire Line
	5800 5600 5800 5400
Connection ~ 5800 5400
Wire Wire Line
	5800 5400 6150 5400
$Comp
L Device:R_US R?
U 1 1 61E1C035
P 6300 5400
F 0 "R?" V 6400 5400 50  0000 C CNN
F 1 "1K5" V 6186 5400 50  0000 C CNN
F 2 "" V 6340 5390 50  0001 C CNN
F 3 "~" H 6300 5400 50  0001 C CNN
	1    6300 5400
	0    1    1    0   
$EndComp
$Comp
L Device:R_US R?
U 1 1 61E1BACB
P 5950 5600
F 0 "R?" V 6050 5600 50  0000 C CNN
F 1 "1K5" V 5836 5600 50  0000 C CNN
F 2 "" V 5990 5590 50  0001 C CNN
F 3 "~" H 5950 5600 50  0001 C CNN
	1    5950 5600
	0    1    1    0   
$EndComp
Text GLabel 9700 1250 1    50   Input ~ 0
BAT+
Wire Wire Line
	9700 1250 9700 1600
Wire Wire Line
	9800 1250 9800 1600
Wire Wire Line
	1550 6950 1500 6950
Wire Wire Line
	1500 6950 1500 6750
Connection ~ 1500 6750
Wire Wire Line
	1500 6750 1550 6750
$Comp
L Device:C C?
U 1 1 61F12298
P 1350 7250
F 0 "C?" H 1465 7296 50  0000 L CNN
F 1 "22uF" H 1465 7205 50  0000 L CNN
F 2 "" H 1388 7100 50  0001 C CNN
F 3 "~" H 1350 7250 50  0001 C CNN
	1    1350 7250
	1    0    0    -1  
$EndComp
$Comp
L power:GND #PWR?
U 1 1 61F12F7B
P 1850 7550
F 0 "#PWR?" H 1850 7300 50  0001 C CNN
F 1 "GND" H 1855 7377 50  0000 C CNN
F 2 "" H 1850 7550 50  0001 C CNN
F 3 "" H 1850 7550 50  0001 C CNN
	1    1850 7550
	1    0    0    -1  
$EndComp
Wire Wire Line
	1850 7150 1850 7400
Wire Wire Line
	1350 6750 1350 7100
Connection ~ 1350 6750
Wire Wire Line
	1350 6750 1500 6750
Wire Wire Line
	1350 7400 1850 7400
Connection ~ 1850 7400
Wire Wire Line
	1850 7400 1850 7550
$Comp
L Device:L L?
U 1 1 61F1A352
P 1850 6350
F 0 "L?" V 2040 6350 50  0000 C CNN
F 1 "22uH" V 1949 6350 50  0000 C CNN
F 2 "" H 1850 6350 50  0001 C CNN
F 3 "~" H 1850 6350 50  0001 C CNN
	1    1850 6350
	0    -1   -1   0   
$EndComp
$Comp
L Device:D_Schottky D?
U 1 1 61F1B4CF
P 2500 6350
F 0 "D?" H 2500 6133 50  0000 C CNN
F 1 "D_Schottky" H 2500 6224 50  0000 C CNN
F 2 "" H 2500 6350 50  0001 C CNN
F 3 "~" H 2500 6350 50  0001 C CNN
	1    2500 6350
	-1   0    0    1   
$EndComp
$Comp
L Device:R_US R?
U 1 1 61F1E112
P 2800 6650
F 0 "R?" H 2868 6696 50  0000 L CNN
F 1 "7.5K" H 2868 6605 50  0000 L CNN
F 2 "" V 2840 6640 50  0001 C CNN
F 3 "~" H 2800 6650 50  0001 C CNN
	1    2800 6650
	1    0    0    -1  
$EndComp
$Comp
L Device:R_US R?
U 1 1 61F1EDBD
P 2800 7100
F 0 "R?" H 2868 7146 50  0000 L CNN
F 1 "1K" H 2868 7055 50  0000 L CNN
F 2 "" V 2840 7090 50  0001 C CNN
F 3 "~" H 2800 7100 50  0001 C CNN
	1    2800 7100
	1    0    0    -1  
$EndComp
$Comp
L Device:C C?
U 1 1 61F1F79C
P 3300 6650
F 0 "C?" H 3415 6696 50  0000 L CNN
F 1 "22uF" H 3415 6605 50  0000 L CNN
F 2 "" H 3338 6500 50  0001 C CNN
F 3 "~" H 3300 6650 50  0001 C CNN
	1    3300 6650
	1    0    0    -1  
$EndComp
Wire Wire Line
	1700 6350 1350 6350
Wire Wire Line
	1350 6350 1350 6750
Wire Wire Line
	2000 6350 2250 6350
Wire Wire Line
	2150 6750 2250 6750
Wire Wire Line
	2250 6750 2250 6350
Connection ~ 2250 6350
Wire Wire Line
	2250 6350 2350 6350
Wire Wire Line
	2800 6500 2800 6350
Wire Wire Line
	2800 6350 2650 6350
Wire Wire Line
	2800 6800 2800 6850
Wire Wire Line
	2150 6950 2700 6950
Wire Wire Line
	2700 6950 2700 6850
Wire Wire Line
	2700 6850 2800 6850
Connection ~ 2800 6850
Wire Wire Line
	2800 6850 2800 6950
Wire Wire Line
	3300 6500 3300 6350
Wire Wire Line
	3300 6350 2800 6350
Connection ~ 2800 6350
Text Notes 5300 5900 0    50   ~ 0
Charger IC
Text Notes 2000 4750 0    50   ~ 0
Step-down-5V
Text Notes 1900 6100 0    50   ~ 0
Step-Up-5V
$Comp
L power:GND #PWR?
U 1 1 61F6FB7E
P 2800 7550
F 0 "#PWR?" H 2800 7300 50  0001 C CNN
F 1 "GND" H 2805 7377 50  0000 C CNN
F 2 "" H 2800 7550 50  0001 C CNN
F 3 "" H 2800 7550 50  0001 C CNN
	1    2800 7550
	1    0    0    -1  
$EndComp
$Comp
L power:GND #PWR?
U 1 1 61F71A34
P 3300 7550
F 0 "#PWR?" H 3300 7300 50  0001 C CNN
F 1 "GND" H 3305 7377 50  0000 C CNN
F 2 "" H 3300 7550 50  0001 C CNN
F 3 "" H 3300 7550 50  0001 C CNN
	1    3300 7550
	1    0    0    -1  
$EndComp
Wire Wire Line
	3300 6800 3300 7550
Wire Wire Line
	2800 7250 2800 7550
Text GLabel 3600 6350 2    50   Output ~ 0
5Vout
Wire Wire Line
	3600 6350 3300 6350
Connection ~ 3300 6350
Wire Notes Line
	6650 450  6650 4050
Wire Notes Line
	6650 4050 450  4050
Wire Notes Line
	11250 2700 6650 2700
$Comp
L Switch:SW_SPST SW?
U 1 1 620B5655
P 1000 6750
F 0 "SW?" H 1000 6985 50  0000 C CNN
F 1 "SW_SPST" H 1000 6894 50  0000 C CNN
F 2 "" H 1000 6750 50  0001 C CNN
F 3 "~" H 1000 6750 50  0001 C CNN
	1    1000 6750
	1    0    0    -1  
$EndComp
Wire Wire Line
	750  6750 800  6750
Wire Wire Line
	1200 6750 1350 6750
Text Notes 600  7100 0    50   ~ 0
TODO: Implement \nanother load \nswitch for this?
Wire Wire Line
	3850 5850 3850 6050
Connection ~ 4700 5400
Wire Wire Line
	4400 5400 4700 5400
Wire Wire Line
	4700 5400 5000 5400
Wire Wire Line
	4700 5200 4700 5400
Wire Wire Line
	4700 4450 4700 4600
Wire Wire Line
	4350 4450 4700 4450
$Comp
L Device:R_US R?
U 1 1 6203C58D
P 3850 5700
F 0 "R?" H 3918 5746 50  0000 L CNN
F 1 "R_US" H 3918 5655 50  0000 L CNN
F 2 "" V 3890 5690 50  0001 C CNN
F 3 "~" H 3850 5700 50  0001 C CNN
	1    3850 5700
	1    0    0    -1  
$EndComp
$Comp
L power:GND #PWR?
U 1 1 6203BF08
P 3850 6050
F 0 "#PWR?" H 3850 5800 50  0001 C CNN
F 1 "GND" H 3855 5877 50  0000 C CNN
F 2 "" H 3850 6050 50  0001 C CNN
F 3 "" H 3850 6050 50  0001 C CNN
	1    3850 6050
	1    0    0    -1  
$EndComp
Text GLabel 5000 5400 2    50   Output ~ 0
V_IN
Text GLabel 4350 4450 0    50   Input ~ 0
BAT+
$Comp
L Diode:1N5819 D?
U 1 1 62023F75
P 4250 5400
F 0 "D?" H 4250 5183 50  0000 C CNN
F 1 "1N5819" H 4250 5274 50  0000 C CNN
F 2 "Diode_THT:D_DO-41_SOD81_P10.16mm_Horizontal" H 4250 5225 50  0001 C CNN
F 3 "http://www.vishay.com/docs/88525/1n5817.pdf" H 4250 5400 50  0001 C CNN
	1    4250 5400
	-1   0    0    1   
$EndComp
$Comp
L DMP2305U-7:DMP2305U-7 Q?
U 1 1 620201D8
P 4400 5000
F 0 "Q?" H 4830 5146 50  0000 L CNN
F 1 "DMP2305U-7" H 4830 5055 50  0000 L CNN
F 2 "SOT96P240X110-3N" H 4850 4950 50  0001 L CNN
F 3 "http://www.diodes.com/_files/datasheets/ds31737.pdf" H 4850 4850 50  0001 L CNN
F 4 "MOSFET P-Channel 20V 4.2A SOT23 Diodes Inc DMP2305U-7 P-channel MOSFET Transistor, 4.2 A, -20 V, 3-Pin SOT-23" H 4850 4750 50  0001 L CNN "Description"
F 5 "1.1" H 4850 4650 50  0001 L CNN "Height"
F 6 "Diodes Inc." H 4850 4550 50  0001 L CNN "Manufacturer_Name"
F 7 "DMP2305U-7" H 4850 4450 50  0001 L CNN "Manufacturer_Part_Number"
F 8 "DMP2305U-7" H 4850 4350 50  0001 L CNN "Arrow Part Number"
F 9 "https://www.arrow.com/en/products/dmp2305u-7/diodes-incorporated" H 4850 4250 50  0001 L CNN "Arrow Price/Stock"
F 10 "621-DMP2305U-7" H 4850 4150 50  0001 L CNN "Mouser Part Number"
F 11 "https://www.mouser.co.uk/ProductDetail/Diodes-Incorporated/DMP2305U-7?qs=oUsD4qhOtFyFQmlG8wLVjw%3D%3D" H 4850 4050 50  0001 L CNN "Mouser Price/Stock"
	1    4400 5000
	1    0    0    -1  
$EndComp
Text Notes 4750 4700 0    50   ~ 0
Load-Switch
Wire Wire Line
	4100 5400 3850 5400
Wire Wire Line
	3550 5400 3550 5200
Connection ~ 3550 5200
Wire Wire Line
	3850 5550 3850 5400
Connection ~ 3850 5400
Wire Wire Line
	3850 5400 3550 5400
$Comp
L Regulator_Switching:TPS63001 U?
U 1 1 61E9ECEC
P 8850 3600
F 0 "U?" H 8850 4150 50  0000 C CNN
F 1 "TPS63001" H 8850 4050 50  0000 C CNN
F 2 "Package_SON:Texas_DRC0010J_ThermalVias" H 9700 3050 50  0001 C CNN
F 3 "http://www.ti.com/lit/ds/symlink/tps63000.pdf" H 8550 4150 50  0001 C CNN
	1    8850 3600
	1    0    0    -1  
$EndComp
$Comp
L Device:L L?
U 1 1 61EA587E
P 8850 2950
F 0 "L?" V 9040 2950 50  0000 C CNN
F 1 "2.2uH" V 8949 2950 50  0000 C CNN
F 2 "" H 8850 2950 50  0001 C CNN
F 3 "~" H 8850 2950 50  0001 C CNN
	1    8850 2950
	0    -1   -1   0   
$EndComp
Wire Wire Line
	8700 2950 8400 2950
Wire Wire Line
	8400 2950 8400 3200
Wire Wire Line
	8400 3200 8450 3200
Wire Wire Line
	9000 2950 9300 2950
Wire Wire Line
	9300 2950 9300 3200
Wire Wire Line
	9300 3200 9250 3200
Text GLabel 6900 3400 0    50   Input ~ 0
V_IN
$Comp
L Device:C C?
U 1 1 61EBFFCD
P 7100 4050
F 0 "C?" H 7215 4096 50  0000 L CNN
F 1 "10uF" H 7215 4005 50  0000 L CNN
F 2 "" H 7138 3900 50  0001 C CNN
F 3 "~" H 7100 4050 50  0001 C CNN
	1    7100 4050
	1    0    0    -1  
$EndComp
Wire Wire Line
	7100 3900 7100 3750
$Comp
L Device:C C?
U 1 1 61EC4674
P 7500 4050
F 0 "C?" H 7615 4096 50  0000 L CNN
F 1 "10uF" H 7615 4005 50  0000 L CNN
F 2 "" H 7538 3900 50  0001 C CNN
F 3 "~" H 7500 4050 50  0001 C CNN
	1    7500 4050
	1    0    0    -1  
$EndComp
$Comp
L Device:C C?
U 1 1 61EC8E9C
P 7950 4050
F 0 "C?" H 8065 4096 50  0000 L CNN
F 1 "0.1uF" H 8065 4005 50  0000 L CNN
F 2 "" H 7988 3900 50  0001 C CNN
F 3 "~" H 7950 4050 50  0001 C CNN
	1    7950 4050
	1    0    0    -1  
$EndComp
$Comp
L Device:C C?
U 1 1 61ECD803
P 9600 4000
F 0 "C?" H 9715 4046 50  0000 L CNN
F 1 "10uF" H 9715 3955 50  0000 L CNN
F 2 "" H 9638 3850 50  0001 C CNN
F 3 "~" H 9600 4000 50  0001 C CNN
	1    9600 4000
	1    0    0    -1  
$EndComp
$Comp
L Device:C C?
U 1 1 61ED21A1
P 10100 4000
F 0 "C?" H 10215 4046 50  0000 L CNN
F 1 "10uF" H 10215 3955 50  0000 L CNN
F 2 "" H 10138 3850 50  0001 C CNN
F 3 "~" H 10100 4000 50  0001 C CNN
	1    10100 4000
	1    0    0    -1  
$EndComp
$Comp
L Device:R_Small_US R?
U 1 1 61ED9B60
P 7950 3550
F 0 "R?" H 8018 3596 50  0000 L CNN
F 1 "100" H 8018 3505 50  0000 L CNN
F 2 "" H 7950 3550 50  0001 C CNN
F 3 "~" H 7950 3550 50  0001 C CNN
	1    7950 3550
	1    0    0    -1  
$EndComp
Wire Wire Line
	8450 3800 8350 3800
Connection ~ 7950 3800
Wire Wire Line
	7950 3800 7950 3900
Wire Wire Line
	7950 3450 7950 3400
Wire Wire Line
	7950 3400 8450 3400
Wire Wire Line
	7950 3650 7950 3800
Wire Wire Line
	7950 3400 7500 3400
Connection ~ 7950 3400
Wire Wire Line
	8450 3500 8350 3500
Wire Wire Line
	8350 3500 8350 3600
Wire Wire Line
	8350 3600 8450 3600
Wire Wire Line
	8350 3600 8350 3800
Connection ~ 8350 3600
Connection ~ 8350 3800
Wire Wire Line
	8350 3800 7950 3800
$Comp
L power:GND #PWR?
U 1 1 61F07C1E
P 8750 4650
F 0 "#PWR?" H 8750 4400 50  0001 C CNN
F 1 "GND" H 8755 4477 50  0000 C CNN
F 2 "" H 8750 4650 50  0001 C CNN
F 3 "" H 8750 4650 50  0001 C CNN
	1    8750 4650
	1    0    0    -1  
$EndComp
Wire Wire Line
	8850 4200 8750 4200
Wire Wire Line
	8750 4650 8750 4500
Connection ~ 8750 4200
Wire Wire Line
	7950 4200 7950 4500
Wire Wire Line
	7950 4500 8750 4500
Connection ~ 8750 4500
Wire Wire Line
	8750 4500 8750 4200
Wire Wire Line
	7500 4200 7500 4500
Wire Wire Line
	7500 4500 7950 4500
Connection ~ 7950 4500
Wire Wire Line
	7500 3400 7500 3750
Connection ~ 7500 3400
Wire Wire Line
	7500 3400 6900 3400
Wire Wire Line
	7100 3750 7500 3750
Connection ~ 7500 3750
Wire Wire Line
	7500 3750 7500 3900
Wire Wire Line
	7100 4200 7100 4500
Wire Wire Line
	7100 4500 7500 4500
Connection ~ 7500 4500
Wire Wire Line
	9250 3400 9350 3400
Wire Wire Line
	9350 3400 9350 3600
Wire Wire Line
	9350 3600 9250 3600
$Comp
L power:+3V3 #PWR?
U 1 1 61F3A1A4
P 10300 3400
F 0 "#PWR?" H 10300 3250 50  0001 C CNN
F 1 "+3V3" V 10315 3528 50  0000 L CNN
F 2 "" H 10300 3400 50  0001 C CNN
F 3 "" H 10300 3400 50  0001 C CNN
	1    10300 3400
	0    1    1    0   
$EndComp
Wire Wire Line
	9600 4150 9600 4500
Wire Wire Line
	9600 4500 8750 4500
Wire Wire Line
	10100 4150 10100 4500
Wire Wire Line
	10100 4500 9600 4500
Connection ~ 9600 4500
Wire Wire Line
	10300 3400 10100 3400
Connection ~ 9350 3400
Wire Wire Line
	9600 3400 9600 3850
Connection ~ 9600 3400
Wire Wire Line
	9600 3400 9350 3400
Wire Wire Line
	10100 3400 10100 3850
Connection ~ 10100 3400
Wire Wire Line
	10100 3400 9600 3400
$Comp
L power:+3V3 #PWR?
U 1 1 61E10C48
P 3550 1000
F 0 "#PWR?" H 3550 850 50  0001 C CNN
F 1 "+3V3" H 3565 1173 50  0000 C CNN
F 2 "" H 3550 1000 50  0001 C CNN
F 3 "" H 3550 1000 50  0001 C CNN
	1    3550 1000
	1    0    0    -1  
$EndComp
Wire Wire Line
	3550 1000 3550 1300
$Comp
L power:GND #PWR?
U 1 1 61E18E57
P 4050 3300
F 0 "#PWR?" H 4050 3050 50  0001 C CNN
F 1 "GND" V 4055 3172 50  0000 R CNN
F 2 "" H 4050 3300 50  0001 C CNN
F 3 "" H 4050 3300 50  0001 C CNN
	1    4050 3300
	0    -1   -1   0   
$EndComp
Wire Wire Line
	4050 3300 3650 3300
Wire Wire Line
	3650 3300 3650 3250
$Comp
L Device:R_Small_US R?
U 1 1 61E23A7B
P 8850 1700
F 0 "R?" H 9000 1750 50  0000 R CNN
F 1 "0ohm" H 9100 1650 50  0000 R CNN
F 2 "" H 8850 1700 50  0001 C CNN
F 3 "~" H 8850 1700 50  0001 C CNN
	1    8850 1700
	-1   0    0    1   
$EndComp
Wire Wire Line
	8850 1550 8850 1600
Wire Wire Line
	8850 1800 8950 1800
Wire Wire Line
	8950 1800 8950 1600
Connection ~ 8950 1600
$EndSCHEMATC
